VOLTS,CURRNT_NAMP,TEMP_DEGC,AIR_TEMP_DEGC,RH_PRCNT
0.00E+00,3.00E-05,4.30E+04,-9.90E+01,-9.90E+01
1.00E+01,7.80E-04,2.00E+01,-9.90E+01,-9.90E+01
2.00E+01,1.21E-03,2.00E+01,-9.90E+01,-9.90E+01
3.00E+01,1.52E-03,2.00E+01,-9.90E+01,-9.90E+01
4.00E+01,1.77E-03,2.00E+01,-9.90E+01,-9.90E+01
5.00E+01,2.02E-03,2.00E+01,-9.90E+01,-9.90E+01
6.00E+01,2.29E-03,2.00E+01,-9.90E+01,-9.90E+01
7.00E+01,2.48E-03,2.00E+01,-9.90E+01,-9.90E+01
8.00E+01,2.68E-03,2.00E+01,-9.90E+01,-9.90E+01
9.00E+01,2.86E-03,2.00E+01,-9.90E+01,-9.90E+01
1.00E+02,3.06E-03,2.00E+01,-9.90E+01,-9.90E+01
1.10E+02,3.24E-03,2.00E+01,-9.90E+01,-9.90E+01
1.20E+02,3.06E-03,2.00E+01,-9.90E+01,-9.90E+01
1.30E+02,3.24E-03,2.00E+01,-9.90E+01,-9.90E+01
1.40E+02,3.52E-03,2.00E+01,-9.90E+01,-9.90E+01
1.50E+02,3.63E-03,2.00E+01,-9.90E+01,-9.90E+01
1.60E+02,3.81E-03,2.00E+01,-9.90E+01,-9.90E+01
1.70E+02,4.17E-03,2.00E+01,-9.90E+01,-9.90E+01
1.80E+02,6.03E-03,2.00E+01,-9.90E+01,-9.90E+01
1.90E+02,1.81E-02,2.00E+01,-9.90E+01,-9.90E+01
2.00E+02,9.04E-02,2.00E+01,-9.90E+01,-9.90E+01
