#Measurement file	
#project	CMS tracker
#Sensor Type	PSS
#ID	34342_011_PSS_MAINR
#Scratch PAD	|0000|0000|0000|0000|0001|0001|
#Operator	HPK
#Date	28-Sep-20
#Ingot No.	2984038-504
#Bad strips	0
#AC NG	none
#AC open	none
#AC short	none
#DC high	none
#DC low	none
#DC leaky	none
#Polysilicon Bias Resistance Upper [Mohm]	1.81 
#Polysilicon Bias Resistance Lower [Mohm]	1.60 
#Polysilicon Bias Resistance Average [Mohm]	1.70 
#Depletion voltage [V]	280
#temperature [deg]	25
#humidity [%]	50
	
voltage [V]	current [A]
0	4.668E-09
20	6.814E-08
40	7.177E-08
60	7.549E-08
80	7.696E-08
100	7.807E-08
120	7.926E-08
140	8.013E-08
160	8.09E-08
180	8.134E-08
200	8.155E-08
220	8.197E-08
240	8.255E-08
260	8.006E-08
280	8.163E-08
300	8.261E-08
320	8.337E-08
340	8.403E-08
360	8.464E-08
380	8.52E-08
400	8.574E-08
420	8.627E-08
440	8.677E-08
460	8.727E-08
480	8.776E-08
500	8.823E-08
520	8.87E-08
540	8.916E-08
560	8.962E-08
580	9.008E-08
600	9.053E-08
620	9.098E-08
640	9.143E-08
660	9.188E-08
680	9.233E-08
700	9.278E-08
720	9.323E-08
740	9.369E-08
760	9.415E-08
780	9.462E-08
800	9.51E-08
820	9.558E-08
840	9.607E-08
860	9.657E-08
880	9.708E-08
900	9.76E-08
920	9.815E-08
940	9.87E-08
960	9.928E-08
980	9.988E-08
1000	1.0049E-07
	
voltage [V]	capacitance [F]
0	6.13159E-08
10	8.11157E-09
20	5.59581E-09
30	4.68967E-09
40	4.10293E-09
50	3.68412E-09
60	3.37598E-09
70	3.13494E-09
80	2.91588E-09
90	2.75395E-09
100	2.61646E-09
110	2.49758E-09
120	2.3936E-09
130	2.30162E-09
140	2.2191E-09
150	2.14517E-09
160	2.07794E-09
170	2.01795E-09
180	1.96201E-09
190	1.9082E-09
200	1.85781E-09
210	1.81031E-09
220	1.76509E-09
230	1.72066E-09
240	1.67662E-09
250	1.63777E-09
260	1.60524E-09
270	1.58358E-09
280	1.57389E-09
290	1.56987E-09
300	1.56778E-09
310	1.56636E-09
320	1.56536E-09
330	1.56452E-09
340	1.56391E-09
350	1.56329E-09
360	1.56283E-09
370	1.56238E-09
380	1.56201E-09
390	1.56163E-09
400	1.56132E-09
	
#End of manufacturer data file		
