#Measurement file	
#project	CMS tracker
#Sensor Type	PSS
#ID	34342_009_PSS_MAINR
#Scratch PAD	|0000|0000|0000|0000|0000|1001|
#Operator	HPK
#Date	28-Sep-20
#Ingot No.	2984038-504
#Bad strips	0
#AC NG	none
#AC open	none
#AC short	none
#DC high	none
#DC low	none
#DC leaky	none
#Polysilicon Bias Resistance Upper [Mohm]	1.81 
#Polysilicon Bias Resistance Lower [Mohm]	1.60 
#Polysilicon Bias Resistance Average [Mohm]	1.70 
#Depletion voltage [V]	280
#temperature [deg]	25
#humidity [%]	50
	
voltage [V]	current [A]
0	4.722E-09
20	7.295E-08
40	7.648E-08
60	7.915E-08
80	8.216E-08
100	8.331E-08
120	8.477E-08
140	8.549E-08
160	8.646E-08
180	8.694E-08
200	8.731E-08
220	8.809E-08
240	8.984E-08
260	8.709E-08
280	8.884E-08
300	8.992E-08
320	9.075E-08
340	9.147E-08
360	9.211E-08
380	9.273E-08
400	9.33E-08
420	9.386E-08
440	9.439E-08
460	9.491E-08
480	9.542E-08
500	9.591E-08
520	9.64E-08
540	9.689E-08
560	9.736E-08
580	9.783E-08
600	9.831E-08
620	9.878E-08
640	9.924E-08
660	9.971E-08
680	1.0018E-07
700	1.0065E-07
720	1.0113E-07
740	1.016E-07
760	1.0208E-07
780	1.0257E-07
800	1.0306E-07
820	1.0356E-07
840	1.0407E-07
860	1.0459E-07
880	1.0512E-07
900	1.0566E-07
920	1.0622E-07
940	1.0678E-07
960	1.0737E-07
980	1.0798E-07
1000	1.0861E-07
	
voltage [V]	capacitance [F]
0	6.1203E-08
10	8.08012E-09
20	5.60328E-09
30	4.69463E-09
40	4.10584E-09
50	3.68684E-09
60	3.3789E-09
70	3.13815E-09
80	2.91853E-09
90	2.75647E-09
100	2.61875E-09
110	2.49972E-09
120	2.39563E-09
130	2.30348E-09
140	2.22096E-09
150	2.14691E-09
160	2.0797E-09
170	2.01964E-09
180	1.96446E-09
190	1.9106E-09
200	1.85995E-09
210	1.81235E-09
220	1.76716E-09
230	1.72297E-09
240	1.67855E-09
250	1.63927E-09
260	1.6063E-09
270	1.58328E-09
280	1.57254E-09
290	1.56829E-09
300	1.5661E-09
310	1.5647E-09
320	1.56367E-09
330	1.56281E-09
340	1.56214E-09
350	1.56155E-09
360	1.56105E-09
370	1.56059E-09
380	1.56022E-09
390	1.55983E-09
400	1.55949E-09
	
#End of manufacturer data file		
