%CMSwaferCode:CMSchipCode:ChipColumn:ChipRow:Grading:Color:CutVersion:Status:Location:ChipBoardType:BoardNumber:Dose:Sensor:ProbingSite:Iref:IrefTrim:Vref_A:Vref_A_Trim:Vref_D:Vref_D_Trim:Vref_ADC:Vref_ADC_Trim:MON_ADC_Trim:VCAL_HIGH_slope:VCAL_HIGH_offset:VCAL_MED_slope:VCAL_MED_offset:TrefTsensors:Nf1:Nf2:Nf3:Nf4:RD53chipID:Comment:BoardComment:
TSMC_N2WX39-02F3:TSMC_N2WX39-02F3_10_9:10:9:10:red:4:10:CERN:0:0:0:none:CERN:0:0:0:0:0:0:0:0:0:0.000E+00:0.000E+00:0.000E+00:0.000E+00:0:0:0:0:0:51A9:Probed at CERN, Iref = 0 with trim bits 0:No loaded to any board yet
TSMC_N2WX39-02F3:TSMC_N2WX39-02F3_10_8:10:8:1:yellow:4:1:CERN:0:0:0:none:CERN:4.052361e-06:9:1.206194:28:1.201646:12:0.9047378:12:0:2.108E-04:1.211E-02:2.125E-04:1.140E-02:0:0:0:0:0:51A8:Probed at CERN, Iref = 4.052361e-06 with trim bits 9:No loaded to any board yet
TSMC_N2WX39-02F3:TSMC_N2WX39-02F3_9_8:9:8:1:yellow:4:1:CERN:0:0:0:none:CERN:3.98917e-06:7:1.202609:24:1.195719:17:0.9043757:12:0:2.098E-04:1.278E-02:2.114E-04:1.226E-02:0:0:0:0:0:5198:Probed at CERN, Iref = 3.98917e-06 with trim bits 7:No loaded to any board yet
TSMC_N2WX39-02F3:TSMC_N2WX39-02F3_8_8:8:8:2:green:4:2:CERN:0:0:0:none:CERN:3.932965e-06:7:1.191503:23:1.201811:19:0.9001111:12:0:2.085E-04:1.276E-02:2.102E-04:1.225E-02:0:0:0:0:0:5188:Probed at CERN, Iref = 3.932965e-06 with trim bits 7:No loaded to any board yet
TSMC_N2WX39-02F3:TSMC_N2WX39-02F3_7_8:7:8:1:yellow:4:1:CERN:0:0:0:none:CERN:3.997424e-06:8:1.194355:27:1.198222:19:0.8978044:11:0:2.083E-04:1.257E-02:2.099E-04:1.202E-02:0:0:0:0:0:5178:Probed at CERN, Iref = 3.997424e-06 with trim bits 8:No loaded to any board yet
TSMC_N2WX39-02F3:TSMC_N2WX39-02F3_5_8:5:8:1:yellow:4:1:CERN:0:0:0:none:CERN:3.945181e-06:8:1.195663:19:1.202326:22:0.9010127:10:0:2.095E-04:1.189E-02:2.109E-04:1.156E-02:0:0:0:0:0:5158:Probed at CERN, Iref = 3.945181e-06 with trim bits 8:No loaded to any board yet
TSMC_N2WX39-02F3:TSMC_N2WX39-02F3_10_6:10:6:2:green:4:2:CERN:0:0:0:none:CERN:4.04116e-06:6:1.197189:23:1.188682:15:0.9019671:15:0:2.098E-04:1.246E-02:2.114E-04:1.190E-02:0:0:0:0:0:51A6:Probed at CERN, Iref = 4.04116e-06 with trim bits 6:No loaded to any board yet
TSMC_N2WX39-02F3:TSMC_N2WX39-02F3_6_8:6:8:2:green:4:2:CERN:0:0:0:none:CERN:3.961705e-06:8:1.189193:23:1.201205:20:0.895013:11:0:2.080E-04:1.265E-02:2.095E-04:1.222E-02:0:0:0:0:0:5168:Probed at CERN, Iref = 3.961705e-06 with trim bits 8:No loaded to any board yet
TSMC_N2WX39-02F3:TSMC_N2WX39-02F3_2_8:2:8:2:green:4:2:CERN:0:0:0:none:CERN:4.039955e-06:6:1.202628:25:1.203753:18:0.8992804:11:0:2.093E-04:1.200E-02:2.107E-04:1.169E-02:0:0:0:0:0:5128:Probed at CERN, Iref = 4.039955e-06 with trim bits 6:No loaded to any board yet
TSMC_N2WX39-02F3:TSMC_N2WX39-02F3_1_8:1:8:2:green:4:2:CERN:0:0:0:none:CERN:3.962723e-06:8:1.199226:15:1.203633:23:0.8991251:12:0:2.101E-04:1.181E-02:2.116E-04:1.122E-02:0:0:0:0:0:5118:Probed at CERN, Iref = 3.962723e-06 with trim bits 8:No loaded to any board yet
TSMC_N2WX39-02F3:TSMC_N2WX39-02F3_3_8:3:8:2:green:4:2:CERN:0:0:0:none:CERN:4.004872e-06:9:1.196093:24:1.203167:23:0.8964912:9:0:2.089E-04:1.135E-02:2.105E-04:1.093E-02:0:0:0:0:0:5138:Probed at CERN, Iref = 4.004872e-06 with trim bits 9:No loaded to any board yet
TSMC_N2WX39-02F3:TSMC_N2WX39-02F3_1_7:1:7:1:yellow:4:1:CERN:0:0:0:none:CERN:3.992327e-06:9:1.20167:24:1.208008:24:0.8995032:9:0:2.097E-04:1.085E-02:2.112E-04:1.039E-02:0:0:0:0:0:5117:Probed at CERN, Iref = 3.992327e-06 with trim bits 9:No loaded to any board yet
TSMC_N2WX39-02F3:TSMC_N2WX39-02F3_2_7:2:7:2:green:4:2:CERN:0:0:0:none:CERN:4.052149e-06:9:1.199347:25:1.201118:17:0.8979859:13:0:2.087E-04:1.203E-02:2.102E-04:1.165E-02:0:0:0:0:0:5127:Probed at CERN, Iref = 4.052149e-06 with trim bits 9:No loaded to any board yet
TSMC_N2WX39-02F3:TSMC_N2WX39-02F3_4_6:4:6:1:yellow:4:1:CERN:0:0:0:none:CERN:4.024843e-06:9:1.198803:26:1.191762:19:0.9018438:12:0:2.101E-04:1.097E-02:2.117E-04:1.036E-02:0:0:0:0:0:5146:Probed at CERN, Iref = 4.024843e-06 with trim bits 9:No loaded to any board yet
TSMC_N2WX39-02F3:TSMC_N2WX39-02F3_3_7:3:7:1:yellow:4:1:CERN:0:0:0:none:CERN:4.052418e-06:9:1.204588:22:1.197797:17:0.9000803:11:0:2.093E-04:1.129E-02:2.106E-04:1.105E-02:0:0:0:0:0:5137:Probed at CERN, Iref = 4.052418e-06 with trim bits 9:No loaded to any board yet
TSMC_N2WX39-02F3:TSMC_N2WX39-02F3_5_7:5:7:1:yellow:4:1:CERN:0:0:0:none:CERN:4.015397e-06:8:1.203042:27:1.202979:22:0.9028009:12:0:2.100E-04:1.099E-02:2.117E-04:1.060E-02:0:0:0:0:0:5157:Probed at CERN, Iref = 4.015397e-06 with trim bits 8:No loaded to any board yet
TSMC_N2WX39-02F3:TSMC_N2WX39-02F3_6_7:6:7:1:yellow:4:1:CERN:0:0:0:none:CERN:3.957603e-06:8:1.195988:27:1.204479:23:0.8978406:12:0:2.083E-04:1.314E-02:2.098E-04:1.281E-02:0:0:0:0:0:5167:Probed at CERN, Iref = 3.957603e-06 with trim bits 8:No loaded to any board yet
TSMC_N2WX39-02F3:TSMC_N2WX39-02F3_7_7:7:7:1:yellow:4:1:CERN:0:0:0:none:CERN:3.941017e-06:7:1.198158:23:1.204789:14:0.9022507:12:0:2.093E-04:1.310E-02:2.109E-04:1.266E-02:0:0:0:0:0:5177:Probed at CERN, Iref = 3.941017e-06 with trim bits 7:No loaded to any board yet
TSMC_N2WX39-02F3:TSMC_N2WX39-02F3_8_7:8:7:1:yellow:4:1:CERN:0:0:0:none:CERN:3.941173e-06:9:1.205978:24:1.196807:19:0.9014835:11:0:2.098E-04:1.203E-02:2.113E-04:1.141E-02:0:0:0:0:0:5187:Probed at CERN, Iref = 3.941173e-06 with trim bits 9:No loaded to any board yet
TSMC_N2WX39-02F3:TSMC_N2WX39-02F3_9_7:9:7:2:green:4:2:CERN:0:0:0:none:CERN:4.016874e-06:11:1.199241:20:1.198663:21:0.8952332:11:0:2.077E-04:1.310E-02:2.092E-04:1.256E-02:0:0:0:0:0:5197:Probed at CERN, Iref = 4.016874e-06 with trim bits 11:No loaded to any board yet
TSMC_N2WX39-02F3:TSMC_N2WX39-02F3_10_7:10:7:1:yellow:4:1:CERN:0:0:0:none:CERN:3.998746e-06:8:1.211015:24:1.201219:14:0.9037179:12:0:2.108E-04:1.106E-02:2.123E-04:1.069E-02:0:0:0:0:0:51A7:Probed at CERN, Iref = 3.998746e-06 with trim bits 8:No loaded to any board yet
TSMC_N2WX39-02F3:TSMC_N2WX39-02F3_4_5:4:5:1:yellow:4:1:CERN:0:0:0:none:CERN:3.978467e-06:7:1.202482:27:1.20254:21:0.905295:12:0:2.108E-04:1.109E-02:2.123E-04:1.073E-02:0:0:0:0:0:5145:Probed at CERN, Iref = 3.978467e-06 with trim bits 7:No loaded to any board yet
TSMC_N2WX39-02F3:TSMC_N2WX39-02F3_7_6:7:6:2:green:4:2:CERN:0:0:0:none:CERN:3.993816e-06:7:1.202581:24:1.195697:23:0.8970979:11:0:2.086E-04:1.185E-02:2.101E-04:1.136E-02:0:0:0:0:0:5176:Probed at CERN, Iref = 3.993816e-06 with trim bits 7:No loaded to any board yet
TSMC_N2WX39-02F3:TSMC_N2WX39-02F3_8_6:8:6:1:yellow:4:1:CERN:0:0:0:none:CERN:3.941586e-06:9:1.212349:24:1.199396:21:0.8990959:10:0:2.087E-04:1.177E-02:2.104E-04:1.138E-02:0:0:0:0:0:5186:Probed at CERN, Iref = 3.941586e-06 with trim bits 9:No loaded to any board yet
TSMC_N2WX39-02F3:TSMC_N2WX39-02F3_3_5:3:5:2:green:4:2:CERN:0:0:0:none:CERN:4.011946e-06:8:1.199331:25:1.202205:17:0.8987581:11:0:2.093E-04:1.075E-02:2.108E-04:1.040E-02:0:0:0:0:0:5135:Probed at CERN, Iref = 4.011946e-06 with trim bits 8:No loaded to any board yet
TSMC_N2WX39-02F3:TSMC_N2WX39-02F3_6_6:6:6:2:green:4:2:CERN:0:0:0:none:CERN:3.975292e-06:7:1.194139:23:1.195941:19:0.8982275:12:0:2.088E-04:1.179E-02:2.103E-04:1.128E-02:0:0:0:0:0:5166:Probed at CERN, Iref = 3.975292e-06 with trim bits 7:No loaded to any board yet
TSMC_N2WX39-02F3:TSMC_N2WX39-02F3_4_3:4:3:1:yellow:4:1:CERN:0:0:0:none:CERN:3.990653e-06:9:1.201242:20:1.206608:24:0.9017953:12:0:2.101E-04:1.054E-02:2.115E-04:1.020E-02:0:0:0:0:0:5143:Probed at CERN, Iref = 3.990653e-06 with trim bits 9:No loaded to any board yet
TSMC_N2WX39-02F3:TSMC_N2WX39-02F3_9_6:9:6:10:red:4:10:CERN:0:0:0:none:CERN:0:0:0:0:0:0:0:0:0:0.000E+00:0.000E+00:0.000E+00:0.000E+00:0:0:0:0:0:5196:Probed at CERN, Iref = 0 with trim bits 0:No loaded to any board yet
TSMC_N2WX39-02F3:TSMC_N2WX39-02F3_5_6:5:6:1:yellow:4:1:CERN:0:0:0:none:CERN:4.010615e-06:11:1.193685:29:1.201203:20:0.8983113:11:0:2.092E-04:1.172E-02:2.107E-04:1.130E-02:0:0:0:0:0:5156:Probed at CERN, Iref = 4.010615e-06 with trim bits 11:No loaded to any board yet
TSMC_N2WX39-02F3:TSMC_N2WX39-02F3_3_6:3:6:2:green:4:2:CERN:0:0:0:none:CERN:4.050321e-06:9:1.197948:24:1.210224:16:0.9004104:13:0:2.094E-04:1.069E-02:2.109E-04:1.035E-02:0:0:0:0:0:5136:Probed at CERN, Iref = 4.050321e-06 with trim bits 9:No loaded to any board yet
TSMC_N2WX39-02F3:TSMC_N2WX39-02F3_2_6:2:6:1:yellow:4:1:CERN:0:0:0:none:CERN:4.039277e-06:9:1.198739:28:1.195875:15:0.9021747:12:0:2.099E-04:1.166E-02:2.114E-04:1.140E-02:0:0:0:0:0:5126:Probed at CERN, Iref = 4.039277e-06 with trim bits 9:No loaded to any board yet
TSMC_N2WX39-02F3:TSMC_N2WX39-02F3_9_4:9:4:2:green:4:2:CERN:0:0:0:none:CERN:4.024139e-06:9:1.190391:23:1.204383:16:0.9020025:13:0:2.099E-04:1.110E-02:2.114E-04:1.076E-02:0:0:0:0:0:5194:Probed at CERN, Iref = 4.024139e-06 with trim bits 9:No loaded to any board yet
TSMC_N2WX39-02F3:TSMC_N2WX39-02F3_1_6:1:6:1:yellow:4:1:CERN:0:0:0:none:CERN:4.037364e-06:8:1.195053:26:1.203116:23:0.8968963:13:0:2.094E-04:1.187E-02:2.109E-04:1.147E-02:0:0:0:0:0:5116:Probed at CERN, Iref = 4.037364e-06 with trim bits 8:No loaded to any board yet
TSMC_N2WX39-02F3:TSMC_N2WX39-02F3_2_5:2:5:1:yellow:4:1:CERN:0:0:0:none:CERN:4.011433e-06:8:1.202331:26:1.199991:15:0.9020169:15:0:2.103E-04:1.125E-02:2.117E-04:1.081E-02:0:0:0:0:0:5125:Probed at CERN, Iref = 4.011433e-06 with trim bits 8:No loaded to any board yet
TSMC_N2WX39-02F3:TSMC_N2WX39-02F3_5_5:5:5:2:green:4:2:CERN:0:0:0:none:CERN:3.929597e-06:7:1.196875:19:1.202541:22:0.8982764:11:0:2.092E-04:1.155E-02:2.106E-04:1.121E-02:0:0:0:0:0:5155:Probed at CERN, Iref = 3.929597e-06 with trim bits 7:No loaded to any board yet
TSMC_N2WX39-02F3:TSMC_N2WX39-02F3_6_4:6:4:1:yellow:4:1:CERN:0:0:0:none:CERN:4.037793e-06:7:1.204807:28:1.20081:16:0.9031564:12:0:2.101E-04:1.121E-02:2.115E-04:1.091E-02:0:0:0:0:0:5164:Probed at CERN, Iref = 4.037793e-06 with trim bits 7:No loaded to any board yet
TSMC_N2WX39-02F3:TSMC_N2WX39-02F3_6_5:6:5:1:yellow:4:1:CERN:0:0:0:none:CERN:4.019206e-06:10:1.196314:26:1.193888:15:0.9049177:12:0:2.104E-04:1.148E-02:2.118E-04:1.107E-02:0:0:0:0:0:5165:Probed at CERN, Iref = 4.019206e-06 with trim bits 10:No loaded to any board yet
TSMC_N2WX39-02F3:TSMC_N2WX39-02F3_7_5:7:5:2:green:4:2:CERN:0:0:0:none:CERN:4.03452e-06:11:1.209645:24:1.201567:21:0.8991461:12:0:2.087E-04:1.114E-02:2.102E-04:1.066E-02:0:0:0:0:0:5175:Probed at CERN, Iref = 4.03452e-06 with trim bits 11:No loaded to any board yet
TSMC_N2WX39-02F3:TSMC_N2WX39-02F3_10_5:10:5:1:yellow:4:1:CERN:0:0:0:none:CERN:3.970604e-06:9:1.204369:24:1.199829:22:0.9019274:11:0:2.098E-04:1.252E-02:2.112E-04:1.214E-02:0:0:0:0:0:51A5:Probed at CERN, Iref = 3.970604e-06 with trim bits 9:No loaded to any board yet
TSMC_N2WX39-02F3:TSMC_N2WX39-02F3_4_4:4:4:1:yellow:4:1:CERN:0:0:0:none:CERN:4.030368e-06:10:1.192025:29:1.203178:16:0.8994673:10:0:2.099E-04:1.052E-02:2.116E-04:9.971E-03:0:0:0:0:0:5144:Probed at CERN, Iref = 4.030368e-06 with trim bits 10:No loaded to any board yet
TSMC_N2WX39-02F3:TSMC_N2WX39-02F3_8_5:8:5:1:yellow:4:1:CERN:0:0:0:none:CERN:4.036893e-06:9:1.196785:28:1.200753:16:0.8966886:13:0:2.087E-04:1.066E-02:2.104E-04:1.015E-02:0:0:0:0:0:5185:Probed at CERN, Iref = 4.036893e-06 with trim bits 9:No loaded to any board yet
TSMC_N2WX39-02F3:TSMC_N2WX39-02F3_2_4:2:4:2:green:4:2:CERN:0:0:0:none:CERN:3.996866e-06:8:1.18793:23:1.20744:20:0.9005544:14:0:2.107E-04:1.073E-02:2.122E-04:1.030E-02:0:0:0:0:0:5124:Probed at CERN, Iref = 3.996866e-06 with trim bits 8:No loaded to any board yet
TSMC_N2WX39-02F3:TSMC_N2WX39-02F3_9_5:9:5:1:yellow:4:1:CERN:0:0:0:none:CERN:4.009043e-06:7:1.198893:27:1.197438:25:0.8992339:13:0:2.091E-04:1.080E-02:2.106E-04:1.030E-02:0:0:0:0:0:5195:Probed at CERN, Iref = 4.009043e-06 with trim bits 7:No loaded to any board yet
TSMC_N2WX39-02F3:TSMC_N2WX39-02F3_7_4:7:4:1:yellow:4:1:CERN:0:0:0:none:CERN:3.943312e-06:7:1.203291:27:1.199649:22:0.8967526:11:0:2.085E-04:1.097E-02:2.101E-04:1.031E-02:0:0:0:0:0:5174:Probed at CERN, Iref = 3.943312e-06 with trim bits 7:No loaded to any board yet
TSMC_N2WX39-02F3:TSMC_N2WX39-02F3_5_3:5:3:1:yellow:4:1:CERN:0:0:0:none:CERN:4.052387e-06:7:1.202312:25:1.205882:22:0.901947:11:0:2.104E-04:1.146E-02:2.120E-04:1.095E-02:0:0:0:0:0:5153:Probed at CERN, Iref = 4.052387e-06 with trim bits 7:No loaded to any board yet
TSMC_N2WX39-02F3:TSMC_N2WX39-02F3_8_4:8:4:2:green:4:2:CERN:0:0:0:none:CERN:3.973889e-06:7:1.200801:23:1.204263:23:0.9032127:8:0:2.098E-04:1.095E-02:2.114E-04:1.046E-02:0:0:0:0:0:5184:Probed at CERN, Iref = 3.973889e-06 with trim bits 7:No loaded to any board yet
TSMC_N2WX39-02F3:TSMC_N2WX39-02F3_5_4:5:4:1:yellow:4:1:CERN:0:0:0:none:CERN:4.016461e-06:7:1.196556:27:1.195334:19:0.9003008:13:0:2.101E-04:1.103E-02:2.116E-04:1.057E-02:0:0:0:0:0:5154:Probed at CERN, Iref = 4.016461e-06 with trim bits 7:No loaded to any board yet
TSMC_N2WX39-02F3:TSMC_N2WX39-02F3_8_3:8:3:2:green:4:2:CERN:0:0:0:none:CERN:4.000175e-06:6:1.202384:16:1.203397:25:0.9011514:13:0:2.096E-04:1.088E-02:2.111E-04:1.038E-02:0:0:0:0:0:5183:Probed at CERN, Iref = 4.000175e-06 with trim bits 6:No loaded to any board yet
TSMC_N2WX39-02F3:TSMC_N2WX39-02F3_3_4:3:4:10:red:4:10:CERN:0:0:0:none:CERN:0:0:0:0:0:0:0:0:0:0.000E+00:0.000E+00:0.000E+00:0.000E+00:0:0:0:0:0:5134:Probed at CERN, Iref = 0 with trim bits 0:No loaded to any board yet
TSMC_N2WX39-02F3:TSMC_N2WX39-02F3_7_3:7:3:1:yellow:4:1:CERN:0:0:0:none:CERN:3.976599e-06:8:1.203637:24:1.201203:24:0.8947992:11:0:2.089E-04:1.097E-02:2.104E-04:1.047E-02:0:0:0:0:0:5173:Probed at CERN, Iref = 3.976599e-06 with trim bits 8:No loaded to any board yet
TSMC_N2WX39-02F3:TSMC_N2WX39-02F3_2_3:2:3:10:red:4:10:CERN:0:0:0:none:CERN:0:0:0:0:0:0:0:0:0:0.000E+00:0.000E+00:0.000E+00:0.000E+00:0:0:0:0:0:5123:Probed at CERN, Iref = 0 with trim bits 0:No loaded to any board yet
TSMC_N2WX39-02F3:TSMC_N2WX39-02F3_3_3:3:3:2:green:4:2:CERN:0:0:0:none:CERN:3.947812e-06:8:1.202681:27:1.19426:15:0.8989606:12:0:2.092E-04:1.188E-02:2.108E-04:1.132E-02:0:0:0:0:0:5133:Probed at CERN, Iref = 3.947812e-06 with trim bits 8:No loaded to any board yet
TSMC_N2WX39-02F3:TSMC_N2WX39-02F3_7_2:7:2:2:green:4:2:CERN:0:0:0:none:CERN:4.026206e-06:9:1.200558:22:1.203565:22:0.9016684:11:0:2.098E-04:1.239E-02:2.112E-04:1.182E-02:0:0:0:0:0:5172:Probed at CERN, Iref = 4.026206e-06 with trim bits 9:No loaded to any board yet
TSMC_N2WX39-02F3:TSMC_N2WX39-02F3_5_12:5:12:10:red:4:10:CERN:0:0:0:none:CERN:0:0:0:0:0:0:0:0:0:0.000E+00:0.000E+00:0.000E+00:0.000E+00:0:0:0:0:0:515C:Probed at CERN, Iref = 0 with trim bits 0:No loaded to any board yet
TSMC_N2WX39-02F3:TSMC_N2WX39-02F3_5_10:5:10:1:yellow:4:1:CERN:0:0:0:none:CERN:3.995e-06:7:1.205321:24:1.197911:17:0.9018054:8:0:2.086E-04:1.599E-02:2.100E-04:1.549E-02:0:0:0:0:0:515A:Probed at CERN, Iref = 3.995e-06 with trim bits 7:No loaded to any board yet
TSMC_N2WX39-02F3:TSMC_N2WX39-02F3_6_12:6:12:1:yellow:4:1:CERN:0:0:0:none:CERN:4.056107e-06:10:1.205317:22:1.199525:18:0.9019043:8:0:2.042E-04:3.625E-02:2.058E-04:3.563E-02:0:0:0:0:0:516C:Probed at CERN, Iref = 4.056107e-06 with trim bits 10:No loaded to any board yet
TSMC_N2WX39-02F3:TSMC_N2WX39-02F3_5_11:5:11:2:green:4:2:CERN:0:0:0:none:CERN:4.035646e-06:9:1.194381:23:1.203383:15:0.9047498:12:0:2.087E-04:2.092E-02:2.102E-04:2.063E-02:0:0:0:0:0:515B:Probed at CERN, Iref = 4.035646e-06 with trim bits 9:No loaded to any board yet
TSMC_N2WX39-02F3:TSMC_N2WX39-02F3_7_12:7:12:1:yellow:4:1:CERN:0:0:0:none:CERN:3.974112e-06:7:1.207715:28:1.199147:14:0.8972951:9:0:2.074E-04:2.030E-02:2.088E-04:1.987E-02:0:0:0:0:0:517C:Probed at CERN, Iref = 3.974112e-06 with trim bits 7:No loaded to any board yet
TSMC_N2WX39-02F3:TSMC_N2WX39-02F3_4_12:4:12:1:yellow:4:1:CERN:0:0:0:none:CERN:3.956871e-06:5:1.199321:22:1.197842:18:0.8990263:8:0:2.069E-04:2.378E-02:2.083E-04:2.331E-02:0:0:0:0:0:514C:Probed at CERN, Iref = 3.956871e-06 with trim bits 5:No loaded to any board yet
TSMC_N2WX39-02F3:TSMC_N2WX39-02F3_3_11:3:11:1:yellow:4:1:CERN:0:0:0:none:CERN:4.046058e-06:8:1.209677:24:1.188459:23:0.9010096:11:0:2.075E-04:2.344E-02:2.090E-04:2.313E-02:0:0:0:0:0:513B:Probed at CERN, Iref = 4.046058e-06 with trim bits 8:No loaded to any board yet
TSMC_N2WX39-02F3:TSMC_N2WX39-02F3_8_10:8:10:1:yellow:4:1:CERN:0:0:0:none:CERN:3.992396e-06:7:1.200535:27:1.203496:20:0.9006544:10:0:2.083E-04:1.731E-02:2.098E-04:1.692E-02:0:0:0:0:0:518A:Probed at CERN, Iref = 3.992396e-06 with trim bits 7:No loaded to any board yet
TSMC_N2WX39-02F3:TSMC_N2WX39-02F3_4_11:4:11:2:green:4:2:CERN:0:0:0:none:CERN:3.963176e-06:8:1.197305:25:1.201782:23:0.898209:9:0:2.069E-04:2.155E-02:2.084E-04:2.115E-02:0:0:0:0:0:514B:Probed at CERN, Iref = 3.963176e-06 with trim bits 8:No loaded to any board yet
TSMC_N2WX39-02F3:TSMC_N2WX39-02F3_6_11:6:11:1:yellow:4:1:CERN:0:0:0:none:CERN:4.036315e-06:8:1.211167:24:1.19876:20:0.8974967:9:0:2.057E-04:2.459E-02:2.071E-04:2.429E-02:0:0:0:0:0:516B:Probed at CERN, Iref = 4.036315e-06 with trim bits 8:No loaded to any board yet
TSMC_N2WX39-02F3:TSMC_N2WX39-02F3_7_11:7:11:1:yellow:4:1:CERN:0:0:0:none:CERN:3.981545e-06:7:1.19662:27:1.192247:15:0.9009923:10:0:2.077E-04:1.991E-02:2.092E-04:1.944E-02:0:0:0:0:0:517B:Probed at CERN, Iref = 3.981545e-06 with trim bits 7:No loaded to any board yet
TSMC_N2WX39-02F3:TSMC_N2WX39-02F3_9_9:9:9:2:green:4:2:CERN:0:0:0:none:CERN:4.027303e-06:6:1.20075:23:1.205686:16:0.899667:13:0:2.084E-04:1.425E-02:2.100E-04:1.374E-02:0:0:0:0:0:5199:Probed at CERN, Iref = 4.027303e-06 with trim bits 6:No loaded to any board yet
TSMC_N2WX39-02F3:TSMC_N2WX39-02F3_8_11:8:11:2:green:4:2:CERN:0:0:0:none:CERN:4.012612e-06:9:1.201714:27:1.200608:22:0.8961495:11:0:2.073E-04:1.907E-02:2.088E-04:1.875E-02:0:0:0:0:0:518B:Probed at CERN, Iref = 4.012612e-06 with trim bits 9:No loaded to any board yet
TSMC_N2WX39-02F3:TSMC_N2WX39-02F3_9_10:9:10:10:red:4:10:CERN:0:0:0:none:CERN:3.714315e-06:15:1.155875:31:1.204311:23:0.9000704:11:0:2.078E-04:2.033E-02:2.093E-04:1.973E-02:0:0:0:0:0:519A:Probed at CERN, Iref = 3.714315e-06 with trim bits 15:No loaded to any board yet
TSMC_N2WX39-02F3:TSMC_N2WX39-02F3_7_10:7:10:1:yellow:4:1:CERN:0:0:0:none:CERN:3.993134e-06:8:1.204355:24:1.201947:23:0.9014328:12:0:2.075E-04:1.934E-02:2.092E-04:1.877E-02:0:0:0:0:0:517A:Probed at CERN, Iref = 3.993134e-06 with trim bits 8:No loaded to any board yet
TSMC_N2WX39-02F3:TSMC_N2WX39-02F3_6_10:6:10:2:green:4:2:CERN:0:0:0:none:CERN:3.95472e-06:6:1.205668:24:1.202704:14:0.9028164:12:0:2.091E-04:1.526E-02:2.107E-04:1.472E-02:0:0:0:0:0:516A:Probed at CERN, Iref = 3.95472e-06 with trim bits 6:No loaded to any board yet
TSMC_N2WX39-02F3:TSMC_N2WX39-02F3_4_10:4:10:2:green:4:2:CERN:0:0:0:none:CERN:3.944079e-06:7:1.210382:24:1.198748:17:0.9019482:9:0:2.093E-04:1.454E-02:2.107E-04:1.426E-02:0:0:0:0:0:514A:Probed at CERN, Iref = 3.944079e-06 with trim bits 7:No loaded to any board yet
TSMC_N2WX39-02F3:TSMC_N2WX39-02F3_4_8:4:8:2:green:4:2:CERN:0:0:0:none:CERN:4.002403e-06:9:1.194752:21:1.197252:20:0.9020122:12:0:2.101E-04:1.099E-02:2.115E-04:1.063E-02:0:0:0:0:0:5148:Probed at CERN, Iref = 4.002403e-06 with trim bits 9:No loaded to any board yet
TSMC_N2WX39-02F3:TSMC_N2WX39-02F3_2_10:2:10:2:green:4:2:CERN:0:0:0:none:CERN:3.965035e-06:6:1.207854:24:1.198596:14:0.8987955:9:0:2.088E-04:1.522E-02:2.102E-04:1.491E-02:0:0:0:0:0:512A:Probed at CERN, Iref = 3.965035e-06 with trim bits 6:No loaded to any board yet
TSMC_N2WX39-02F3:TSMC_N2WX39-02F3_2_9:2:9:1:yellow:4:1:CERN:0:0:0:none:CERN:3.947911e-06:9:1.195636:26:1.197767:18:0.8965894:9:0:2.085E-04:1.387E-02:2.100E-04:1.347E-02:0:0:0:0:0:5129:Probed at CERN, Iref = 3.947911e-06 with trim bits 9:No loaded to any board yet
TSMC_N2WX39-02F3:TSMC_N2WX39-02F3_3_9:3:9:1:yellow:4:1:CERN:0:0:0:none:CERN:4.012325e-06:8:1.202295:26:1.201107:20:0.9028071:12:0:2.093E-04:1.268E-02:2.107E-04:1.228E-02:0:0:0:0:0:5139:Probed at CERN, Iref = 4.012325e-06 with trim bits 8:No loaded to any board yet
TSMC_N2WX39-02F3:TSMC_N2WX39-02F3_4_9:4:9:1:yellow:4:1:CERN:0:0:0:none:CERN:3.949714e-06:8:1.205444:26:1.199423:17:0.9005984:11:0:2.093E-04:1.276E-02:2.109E-04:1.238E-02:0:0:0:0:0:5149:Probed at CERN, Iref = 3.949714e-06 with trim bits 8:No loaded to any board yet
TSMC_N2WX39-02F3:TSMC_N2WX39-02F3_5_9:5:9:10:red:4:10:CERN:0:0:0:none:CERN:3.981107e-06:10:1.208498:30:1.195278:19:0.9034895:14:0:2.097E-04:1.493E-02:2.112E-04:1.440E-02:0:0:0:0:0:5159:Probed at CERN, Iref = 3.981107e-06 with trim bits 10:No loaded to any board yet
TSMC_N2WX39-02F3:TSMC_N2WX39-02F3_6_9:6:9:1:yellow:4:1:CERN:0:0:0:none:CERN:4.032503e-06:11:1.196144:26:1.197344:21:0.9048973:12:0:2.104E-04:1.343E-02:2.120E-04:1.289E-02:0:0:0:0:0:5169:Probed at CERN, Iref = 4.032503e-06 with trim bits 11:No loaded to any board yet
TSMC_N2WX39-02F3:TSMC_N2WX39-02F3_7_9:7:9:1:yellow:4:1:CERN:0:0:0:none:CERN:3.984102e-06:7:1.197776:24:1.200716:19:0.900504:11:0:2.086E-04:1.352E-02:2.102E-04:1.300E-02:0:0:0:0:0:5179:Probed at CERN, Iref = 3.984102e-06 with trim bits 7:No loaded to any board yet
TSMC_N2WX39-02F3:TSMC_N2WX39-02F3_8_9:8:9:2:green:4:2:CERN:0:0:0:none:CERN:4.013921e-06:10:1.200455:20:1.195001:21:0.8951953:11:0:2.083E-04:1.255E-02:2.099E-04:1.183E-02:0:0:0:0:0:5189:Probed at CERN, Iref = 4.013921e-06 with trim bits 10:No loaded to any board yet
TSMC_N2WX39-02F3:TSMC_N2WX39-02F3_4_7:4:7:1:yellow:4:1:CERN:0:0:0:none:CERN:3.957643e-06:6:1.205713:20:1.193635:23:0.8992148:10:0:2.089E-04:1.243E-02:2.105E-04:1.197E-02:0:0:0:0:0:5147:Probed at CERN, Iref = 3.957643e-06 with trim bits 6:No loaded to any board yet
TSMC_N2WX39-02F3:TSMC_N2WX39-02F3_3_10:3:10:2:green:4:2:CERN:0:0:0:none:CERN:3.946575e-06:9:1.196247:25:1.201869:15:0.8969867:9:0:2.081E-04:1.392E-02:2.096E-04:1.367E-02:0:0:0:0:0:513A:Probed at CERN, Iref = 3.946575e-06 with trim bits 9:No loaded to any board yet
TSMC_N2WX39-02F3:TSMC_N2WX39-02F3_6_3:6:3:2:green:4:2:CERN:0:0:0:none:CERN:3.947277e-06:7:1.204595:26:1.193848:25:0.8986772:12:0:2.093E-04:1.081E-02:2.110E-04:1.022E-02:0:0:0:0:0:5163:Probed at CERN, Iref = 3.947277e-06 with trim bits 7:No loaded to any board yet
TSMC_N2WX39-02F3:TSMC_N2WX39-02F3_9_3:9:3:2:green:4:2:CERN:0:0:0:none:CERN:3.959696e-06:7:1.202094:25:1.200221:24:0.8990594:12:0:2.097E-04:1.134E-02:2.112E-04:1.098E-02:0:0:0:0:0:5193:Probed at CERN, Iref = 3.959696e-06 with trim bits 7:No loaded to any board yet
TSMC_N2WX39-02F3:TSMC_N2WX39-02F3_5_2:5:2:2:green:4:2:CERN:0:0:0:none:CERN:3.9765e-06:7:1.199016:22:1.204456:25:0.8996419:10:0:2.096E-04:1.134E-02:2.111E-04:1.097E-02:0:0:0:0:0:5152:Probed at CERN, Iref = 3.9765e-06 with trim bits 7:No loaded to any board yet
TSMC_N2WX39-02F3:TSMC_N2WX39-02F3_8_2:8:2:1:yellow:4:1:CERN:0:0:0:none:CERN:3.961761e-06:6:1.195077:27:1.192524:19:0.8987583:12:0:2.094E-04:1.128E-02:2.109E-04:1.083E-02:0:0:0:0:0:5182:Probed at CERN, Iref = 3.961761e-06 with trim bits 6:No loaded to any board yet
TSMC_N2WX39-02F3:TSMC_N2WX39-02F3_6_2:6:2:1:yellow:4:1:CERN:0:0:0:none:CERN:4.034181e-06:8:1.206375:24:1.198899:22:0.9001914:10:0:2.097E-04:1.210E-02:2.111E-04:1.165E-02:0:0:0:0:0:5162:Probed at CERN, Iref = 4.034181e-06 with trim bits 8:No loaded to any board yet
TSMC_N2WX39-02F3:TSMC_N2WX39-02F3_4_2:4:2:2:green:4:2:CERN:0:0:0:none:CERN:3.933097e-06:7:1.191595:19:1.201673:23:0.9015545:15:0:2.103E-04:1.143E-02:2.119E-04:1.087E-02:0:0:0:0:0:5142:Probed at CERN, Iref = 3.933097e-06 with trim bits 7:No loaded to any board yet
TSMC_N2WX39-02F3:TSMC_N2WX39-02F3_5_1:5:1:2:green:4:2:CERN:0:0:0:none:CERN:4.003844e-06:6:1.199882:23:1.205242:20:0.8979126:9:0:2.092E-04:1.199E-02:2.107E-04:1.162E-02:0:0:0:0:0:5151:Probed at CERN, Iref = 4.003844e-06 with trim bits 6:No loaded to any board yet
TSMC_N2WX39-02F3:TSMC_N2WX39-02F3_6_1:6:1:2:green:4:2:CERN:0:0:0:none:CERN:3.978235e-06:7:1.19404:25:1.208206:24:0.8973429:13:0:2.089E-04:1.217E-02:2.105E-04:1.173E-02:0:0:0:0:0:5161:Probed at CERN, Iref = 3.978235e-06 with trim bits 7:No loaded to any board yet
