%CMSwaferCode:CMSchipCode:ChipColumn:ChipRow:Grading:Color:CutVersion:Status:Location:ChipBoardType:BoardNumber:Dose:Sensor:ProbingSite:Iref:IrefTrim:Vref_A:Vref_A_Trim:Vref_D:Vref_D_Trim:Vref_ADC:Vref_ADC_Trim:MON_ADC_Trim:VCAL_HIGH_slope:VCAL_HIGH_offset:VCAL_MED_slope:VCAL_MED_offset:TrefTsensors:Nf1:Nf2:Nf3:Nf4:RD53chipID:Comment:BoardComment:
TSMC_N25A67-02B1:TSMC_N25A67-02B1_5_4:5:4:2:green:4:2:IZM:0:0:0:none:Bonn:3.966381e-06:7:1.202182:19:1.202747:24:0.9039087:12:0:2.114E-04:1.339E-02:2.118E-04:1.349E-02:0:0:0:0:0:1154:Probed at Bonn, Iref = 3.966381e-06 with trim bits 7:No loaded to any board yet
TSMC_N25A67-02B1:TSMC_N25A67-02B1_3_3:3:3:10:red:4:10:IZM:0:0:0:none:Bonn:0:0:0:0:0:0:0:0:0:0.000E+00:0.000E+00:0.000E+00:0.000E+00:0:0:0:0:0:1133:Probed at Bonn, Iref = 0 with trim bits 0:No loaded to any board yet
TSMC_N25A67-02B1:TSMC_N25A67-02B1_10_5:10:5:2:green:4:2:IZM:0:0:0:none:Bonn:4.041715e-06:7:1.195115:23:1.1951:17:0.8999503:12:0:2.099E-04:1.539E-02:2.102E-04:1.551E-02:0:0:0:0:0:11A5:Probed at Bonn, Iref = 4.041715e-06 with trim bits 7:No loaded to any board yet
TSMC_N25A67-02B1:TSMC_N25A67-02B1_7_12:7:12:1:yellow:4:1:IZM:0:0:0:none:Bonn:3.985989e-06:8:1.207284:24:1.202016:14:0.9009066:12:0:2.092E-04:2.007E-02:2.097E-04:2.023E-02:0:0:0:0:0:117C:Probed at Bonn, Iref = 3.985989e-06 with trim bits 8:No loaded to any board yet
TSMC_N25A67-02B1:TSMC_N25A67-02B1_5_11:5:11:1:yellow:4:1:IZM:0:0:0:none:Bonn:3.950548e-06:9:1.199076:22:1.197613:21:0.9008451:10:0:2.098E-04:1.398E-02:2.101E-04:1.433E-02:0:0:0:0:0:115B:Probed at Bonn, Iref = 3.950548e-06 with trim bits 9:No loaded to any board yet
TSMC_N25A67-02B1:TSMC_N25A67-02B1_2_4:2:4:2:green:4:2:IZM:0:0:0:none:Bonn:3.992397e-06:7:1.192424:19:1.195056:24:0.8992749:11:0:2.096E-04:1.677E-02:2.101E-04:1.684E-02:0:0:0:0:0:1124:Probed at Bonn, Iref = 3.992397e-06 with trim bits 7:No loaded to any board yet
TSMC_N25A67-02B1:TSMC_N25A67-02B1_4_3:4:3:10:red:4:10:IZM:0:0:0:none:Bonn:4.021768e-06:6:1.190051:27:1.198531:22:0.8280554:3:0:1.686E-08:7.210E-02:1.932E-04:1.537E-02:0:0:0:0:0:1143:Probed at Bonn, Iref = 4.021768e-06 with trim bits 6:No loaded to any board yet
TSMC_N25A67-02B1:TSMC_N25A67-02B1_7_11:7:11:10:red:4:10:IZM:0:0:0:none:Bonn:4.028043e-06:7:1.203133:12:1.193181:21:0.8968922:11:0:1.618E-08:7.656E-02:3.200E-09:1.199E-01:0:0:0:0:0:117B:Probed at Bonn, Iref = 4.028043e-06 with trim bits 7:No loaded to any board yet
TSMC_N25A67-02B1:TSMC_N25A67-02B1_2_7:2:7:1:yellow:4:1:IZM:0:0:0:none:Bonn:3.997733e-06:8:1.205397:26:1.2054:16:0.9052203:12:0:2.097E-04:1.793E-02:2.101E-04:1.797E-02:0:0:0:0:0:1127:Probed at Bonn, Iref = 3.997733e-06 with trim bits 8:No loaded to any board yet
TSMC_N25A67-02B1:TSMC_N25A67-02B1_8_11:8:11:2:green:4:2:IZM:0:0:0:none:Bonn:4.005392e-06:6:1.196056:23:1.201955:20:0.9029237:10:0:2.107E-04:1.501E-02:2.110E-04:1.522E-02:0:0:0:0:0:118B:Probed at Bonn, Iref = 4.005392e-06 with trim bits 6:No loaded to any board yet
TSMC_N25A67-02B1:TSMC_N25A67-02B1_6_12:6:12:1:yellow:4:1:IZM:0:0:0:none:Bonn:3.942153e-06:5:1.196175:20:1.202213:19:0.898032:9:0:2.099E-04:1.374E-02:2.104E-04:1.390E-02:0:0:0:0:0:116C:Probed at Bonn, Iref = 3.942153e-06 with trim bits 5:No loaded to any board yet
TSMC_N25A67-02B1:TSMC_N25A67-02B1_3_10:3:10:10:red:4:10:IZM:0:0:0:none:Bonn:0:0:0:0:0:0:0:0:0:0.000E+00:0.000E+00:0.000E+00:0.000E+00:0:0:0:0:0:113A:Probed at Bonn, Iref = 0 with trim bits 0:No loaded to any board yet
TSMC_N25A67-02B1:TSMC_N25A67-02B1_9_7:9:7:2:green:4:2:IZM:0:0:0:none:Bonn:4.015466e-06:8:1.203998:24:1.200153:17:0.8983239:10:0:2.085E-04:1.790E-02:2.089E-04:1.803E-02:0:0:0:0:0:1197:Probed at Bonn, Iref = 4.015466e-06 with trim bits 8:No loaded to any board yet
TSMC_N25A67-02B1:TSMC_N25A67-02B1_7_7:7:7:1:yellow:4:1:IZM:0:0:0:none:Bonn:3.959369e-06:9:1.207023:26:1.207344:26:0.9020969:14:0:2.108E-04:1.359E-02:2.112E-04:1.377E-02:0:0:0:0:0:1177:Probed at Bonn, Iref = 3.959369e-06 with trim bits 9:No loaded to any board yet
TSMC_N25A67-02B1:TSMC_N25A67-02B1_2_8:2:8:2:green:4:2:IZM:0:0:0:none:Bonn:3.941209e-06:7:1.199843:22:1.202031:27:0.8978162:9:0:2.083E-04:1.988E-02:2.085E-04:2.010E-02:0:0:0:0:0:1128:Probed at Bonn, Iref = 3.941209e-06 with trim bits 7:No loaded to any board yet
TSMC_N25A67-02B1:TSMC_N25A67-02B1_7_6:7:6:1:yellow:4:1:IZM:0:0:0:none:Bonn:4.015123e-06:7:1.196602:23:1.203882:21:0.8995573:11:0:2.104E-04:1.340E-02:2.107E-04:1.353E-02:0:0:0:0:0:1176:Probed at Bonn, Iref = 4.015123e-06 with trim bits 7:No loaded to any board yet
TSMC_N25A67-02B1:TSMC_N25A67-02B1_4_10:4:10:2:green:4:2:IZM:0:0:0:none:Bonn:3.976149e-06:8:1.197109:20:1.199326:17:0.9003686:13:0:2.105E-04:1.259E-02:2.109E-04:1.279E-02:0:0:0:0:0:114A:Probed at Bonn, Iref = 3.976149e-06 with trim bits 8:No loaded to any board yet
TSMC_N25A67-02B1:TSMC_N25A67-02B1_5_10:5:10:1:yellow:4:1:IZM:0:0:0:none:Bonn:3.984175e-06:6:1.200676:16:1.203529:16:0.8963318:11:0:2.101E-04:1.036E-02:2.105E-04:1.051E-02:0:0:0:0:0:115A:Probed at Bonn, Iref = 3.984175e-06 with trim bits 6:No loaded to any board yet
TSMC_N25A67-02B1:TSMC_N25A67-02B1_9_4:9:4:2:green:4:2:IZM:0:0:0:none:Bonn:4.027213e-06:6:1.200387:18:1.1967:24:0.9023665:12:0:2.098E-04:1.623E-02:2.101E-04:1.635E-02:0:0:0:0:0:1194:Probed at Bonn, Iref = 4.027213e-06 with trim bits 6:No loaded to any board yet
TSMC_N25A67-02B1:TSMC_N25A67-02B1_6_2:6:2:1:yellow:4:1:IZM:0:0:0:none:Bonn:3.98568e-06:6:1.190317:23:1.203302:21:0.9009156:12:0:2.096E-04:1.585E-02:2.101E-04:1.580E-02:0:0:0:0:0:1162:Probed at Bonn, Iref = 3.98568e-06 with trim bits 6:No loaded to any board yet
TSMC_N25A67-02B1:TSMC_N25A67-02B1_8_9:8:9:1:yellow:4:1:IZM:0:0:0:none:Bonn:4.037375e-06:10:1.198173:26:1.197616:25:0.9038066:14:0:2.112E-04:1.121E-02:2.117E-04:1.129E-02:0:0:0:0:0:1189:Probed at Bonn, Iref = 4.037375e-06 with trim bits 10:No loaded to any board yet
TSMC_N25A67-02B1:TSMC_N25A67-02B1_6_11:6:11:10:red:4:10:IZM:0:0:0:none:Bonn:3.970728e-06:6:1.20109:22:1.202335:22:0.896921:9:0:2.084E-04:1.843E-02:2.088E-04:1.843E-02:0:0:0:0:0:116B:Probed at Bonn, Iref = 3.970728e-06 with trim bits 6:No loaded to any board yet
TSMC_N25A67-02B1:TSMC_N25A67-02B1_2_6:2:6:10:red:4:10:IZM:0:0:0:none:Bonn:3.984491e-06:4:1.133405:31:1.105519:16:0.8245863:21:0:1.914E-04:1.693E-02:1.917E-04:1.704E-02:0:0:0:0:0:1126:Probed at Bonn, Iref = 3.984491e-06 with trim bits 4:No loaded to any board yet
TSMC_N25A67-02B1:TSMC_N25A67-02B1_4_11:4:11:2:green:4:2:IZM:0:0:0:none:Bonn:4.020133e-06:9:1.210887:24:1.204337:18:0.9001741:11:0:2.098E-04:1.516E-02:2.102E-04:1.522E-02:0:0:0:0:0:114B:Probed at Bonn, Iref = 4.020133e-06 with trim bits 9:No loaded to any board yet
TSMC_N25A67-02B1:TSMC_N25A67-02B1_5_12:5:12:1:yellow:4:1:IZM:0:0:0:none:Bonn:4.017882e-06:8:1.197513:23:1.198001:17:0.8968799:11:0:2.092E-04:1.509E-02:2.096E-04:1.528E-02:0:0:0:0:0:115C:Probed at Bonn, Iref = 4.017882e-06 with trim bits 8:No loaded to any board yet
TSMC_N25A67-02B1:TSMC_N25A67-02B1_3_5:3:5:2:green:4:2:IZM:0:0:0:none:Bonn:4.037593e-06:6:1.19667:22:1.20506:20:0.9014006:12:0:2.101E-04:1.502E-02:2.104E-04:1.519E-02:0:0:0:0:0:1135:Probed at Bonn, Iref = 4.037593e-06 with trim bits 6:No loaded to any board yet
TSMC_N25A67-02B1:TSMC_N25A67-02B1_7_2:7:2:1:yellow:4:1:IZM:0:0:0:none:Bonn:4.016301e-06:5:1.206028:26:1.209364:24:0.9048181:12:0:2.118E-04:1.329E-02:2.120E-04:1.351E-02:0:0:0:0:0:1172:Probed at Bonn, Iref = 4.016301e-06 with trim bits 5:No loaded to any board yet
TSMC_N25A67-02B1:TSMC_N25A67-02B1_3_8:3:8:10:red:4:10:IZM:0:0:0:none:Bonn:0:0:0:0:0:0:0:0:0:0.000E+00:0.000E+00:0.000E+00:0.000E+00:0:0:0:0:0:1138:Probed at Bonn, Iref = 0 with trim bits 0:No loaded to any board yet
TSMC_N25A67-02B1:TSMC_N25A67-02B1_6_3:6:3:10:red:4:10:IZM:0:0:0:none:Bonn:4.064321e-06:5:1.200516:24:1.194517:19:0.8217782:29:0:1.923E-04:1.222E-02:1.927E-04:1.230E-02:0:0:0:0:0:1163:Probed at Bonn, Iref = 4.064321e-06 with trim bits 5:No loaded to any board yet
TSMC_N25A67-02B1:TSMC_N25A67-02B1_5_7:5:7:2:green:4:2:IZM:0:0:0:none:Bonn:4.001741e-06:9:1.192811:25:1.204618:26:0.8979388:12:0:2.094E-04:1.259E-02:2.098E-04:1.274E-02:0:0:0:0:0:1157:Probed at Bonn, Iref = 4.001741e-06 with trim bits 9:No loaded to any board yet
TSMC_N25A67-02B1:TSMC_N25A67-02B1_7_10:7:10:10:red:4:10:IZM:0:0:0:none:Bonn:0:0:0:0:0:0:0:0:0:0.000E+00:0.000E+00:0.000E+00:0.000E+00:0:0:0:0:0:117A:Probed at Bonn, Iref = 0 with trim bits 0:No loaded to any board yet
TSMC_N25A67-02B1:TSMC_N25A67-02B1_6_7:6:7:1:yellow:4:1:IZM:0:0:0:none:Bonn:3.956406e-06:5:1.204596:22:1.203284:22:0.9034683:14:0:2.099E-04:1.481E-02:2.102E-04:1.505E-02:0:0:0:0:0:1167:Probed at Bonn, Iref = 3.956406e-06 with trim bits 5:No loaded to any board yet
TSMC_N25A67-02B1:TSMC_N25A67-02B1_5_6:5:6:2:green:4:2:IZM:0:0:0:none:Bonn:3.942363e-06:5:1.194143:17:1.199144:22:0.9039544:12:0:2.111E-04:1.347E-02:2.115E-04:1.362E-02:0:0:0:0:0:1156:Probed at Bonn, Iref = 3.942363e-06 with trim bits 5:No loaded to any board yet
TSMC_N25A67-02B1:TSMC_N25A67-02B1_4_12:4:12:1:yellow:4:1:IZM:0:0:0:none:Bonn:3.963786e-06:4:1.200999:27:1.197566:11:0.9011768:11:0:2.102E-04:1.693E-02:2.107E-04:1.703E-02:0:0:0:0:0:114C:Probed at Bonn, Iref = 3.963786e-06 with trim bits 4:No loaded to any board yet
TSMC_N25A67-02B1:TSMC_N25A67-02B1_4_9:4:9:2:green:4:2:IZM:0:0:0:none:Bonn:4.02966e-06:10:1.194609:23:1.200453:20:0.8986198:13:0:2.095E-04:1.318E-02:2.100E-04:1.326E-02:0:0:0:0:0:1149:Probed at Bonn, Iref = 4.02966e-06 with trim bits 10:No loaded to any board yet
TSMC_N25A67-02B1:TSMC_N25A67-02B1_6_5:6:5:10:red:4:10:IZM:0:0:0:none:Bonn:0:0:0:0:0:0:0:0:0:0.000E+00:0.000E+00:0.000E+00:0.000E+00:0:0:0:0:0:1165:Probed at Bonn, Iref = 0 with trim bits 0:No loaded to any board yet
TSMC_N25A67-02B1:TSMC_N25A67-02B1_10_9:10:9:10:red:4:10:IZM:0:0:0:none:Bonn:0:0:0:0:0:0:0:0:0:0.000E+00:0.000E+00:0.000E+00:0.000E+00:0:0:0:0:0:11A9:Probed at Bonn, Iref = 0 with trim bits 0:No loaded to any board yet
TSMC_N25A67-02B1:TSMC_N25A67-02B1_4_4:4:4:1:yellow:4:1:IZM:0:0:0:none:Bonn:3.963439e-06:9:1.193719:23:1.197204:23:0.9032755:10:0:2.105E-04:1.523E-02:2.109E-04:1.531E-02:0:0:0:0:0:1144:Probed at Bonn, Iref = 3.963439e-06 with trim bits 9:No loaded to any board yet
TSMC_N25A67-02B1:TSMC_N25A67-02B1_4_2:4:2:1:yellow:4:1:IZM:0:0:0:none:Bonn:4.024396e-06:8:1.201453:28:1.208976:16:0.9011986:14:0:2.105E-04:1.350E-02:2.109E-04:1.352E-02:0:0:0:0:0:1142:Probed at Bonn, Iref = 4.024396e-06 with trim bits 8:No loaded to any board yet
TSMC_N25A67-02B1:TSMC_N25A67-02B1_3_11:3:11:2:green:4:2:IZM:0:0:0:none:Bonn:4.046152e-06:7:1.195786:21:1.196047:19:0.9012305:13:0:2.100E-04:1.746E-02:2.104E-04:1.754E-02:0:0:0:0:0:113B:Probed at Bonn, Iref = 4.046152e-06 with trim bits 7:No loaded to any board yet
TSMC_N25A67-02B1:TSMC_N25A67-02B1_8_7:8:7:10:red:4:10:IZM:0:0:0:none:Bonn:4.051185e-06:6:1.198187:26:1.208824:24:0.8283889:31:0:1.929E-04:1.452E-02:1.933E-04:1.470E-02:0:0:0:0:0:1187:Probed at Bonn, Iref = 4.051185e-06 with trim bits 6:No loaded to any board yet
TSMC_N25A67-02B1:TSMC_N25A67-02B1_2_3:2:3:10:red:4:10:IZM:0:0:0:none:Bonn:0:0:0:0:0:0:0:0:0:0.000E+00:0.000E+00:0.000E+00:0.000E+00:0:0:0:0:0:1123:Probed at Bonn, Iref = 0 with trim bits 0:No loaded to any board yet
TSMC_N25A67-02B1:TSMC_N25A67-02B1_6_4:6:4:10:red:4:10:IZM:0:0:0:none:Bonn:0:0:0:0:0:0:0:0:0:0.000E+00:0.000E+00:0.000E+00:0.000E+00:0:0:0:0:0:1164:Probed at Bonn, Iref = 0 with trim bits 0:No loaded to any board yet
TSMC_N25A67-02B1:TSMC_N25A67-02B1_5_1:5:1:2:green:4:2:IZM:0:0:0:none:Bonn:3.975839e-06:6:1.206469:24:1.197873:23:0.8965942:11:0:2.089E-04:1.754E-02:2.094E-04:1.759E-02:0:0:0:0:0:1151:Probed at Bonn, Iref = 3.975839e-06 with trim bits 6:No loaded to any board yet
TSMC_N25A67-02B1:TSMC_N25A67-02B1_2_5:2:5:2:green:4:2:IZM:0:0:0:none:Bonn:4.052573e-06:7:1.203677:22:1.207266:24:0.902926:10:0:2.101E-04:1.746E-02:2.105E-04:1.757E-02:0:0:0:0:0:1125:Probed at Bonn, Iref = 4.052573e-06 with trim bits 7:No loaded to any board yet
TSMC_N25A67-02B1:TSMC_N25A67-02B1_6_6:6:6:10:red:4:10:IZM:0:0:0:none:Bonn:0:0:0:0:0:0:0:0:0:0.000E+00:0.000E+00:0.000E+00:0.000E+00:0:0:0:0:0:1166:Probed at Bonn, Iref = 0 with trim bits 0:No loaded to any board yet
TSMC_N25A67-02B1:TSMC_N25A67-02B1_10_6:10:6:1:yellow:4:1:IZM:0:0:0:none:Bonn:3.970093e-06:7:1.202802:25:1.205272:16:0.8986239:9:0:2.081E-04:2.122E-02:2.084E-04:2.143E-02:0:0:0:0:0:11A6:Probed at Bonn, Iref = 3.970093e-06 with trim bits 7:No loaded to any board yet
TSMC_N25A67-02B1:TSMC_N25A67-02B1_9_9:9:9:2:green:4:2:IZM:0:0:0:none:Bonn:3.952377e-06:8:1.196722:23:1.199635:18:0.9046191:12:0:2.107E-04:1.694E-02:2.110E-04:1.724E-02:0:0:0:0:0:1199:Probed at Bonn, Iref = 3.952377e-06 with trim bits 8:No loaded to any board yet
TSMC_N25A67-02B1:TSMC_N25A67-02B1_2_9:2:9:2:green:4:2:IZM:0:0:0:none:Bonn:4.051151e-06:6:1.201604:26:1.200783:21:0.8987711:9:0:2.085E-04:1.980E-02:2.088E-04:2.004E-02:0:0:0:0:0:1129:Probed at Bonn, Iref = 4.051151e-06 with trim bits 6:No loaded to any board yet
TSMC_N25A67-02B1:TSMC_N25A67-02B1_1_7:1:7:1:yellow:4:1:IZM:0:0:0:none:Bonn:3.944457e-06:8:1.200735:19:1.197819:23:0.8978455:5:0:2.067E-04:2.714E-02:2.072E-04:2.713E-02:0:0:0:0:0:1117:Probed at Bonn, Iref = 3.944457e-06 with trim bits 8:No loaded to any board yet
TSMC_N25A67-02B1:TSMC_N25A67-02B1_10_7:10:7:2:green:4:2:IZM:0:0:0:none:Bonn:3.971165e-06:6:1.20218:24:1.193731:17:0.8947929:11:0:2.067E-04:2.136E-02:2.071E-04:2.155E-02:0:0:0:0:0:11A7:Probed at Bonn, Iref = 3.971165e-06 with trim bits 6:No loaded to any board yet
TSMC_N25A67-02B1:TSMC_N25A67-02B1_8_2:8:2:2:green:4:2:IZM:0:0:0:none:Bonn:3.944757e-06:5:1.195454:21:1.200817:21:0.8987504:11:0:2.093E-04:1.858E-02:2.095E-04:1.884E-02:0:0:0:0:0:1182:Probed at Bonn, Iref = 3.944757e-06 with trim bits 5:No loaded to any board yet
TSMC_N25A67-02B1:TSMC_N25A67-02B1_7_9:7:9:2:green:4:2:IZM:0:0:0:none:Bonn:4.015995e-06:9:1.196294:20:1.200103:23:0.9013075:11:0:2.106E-04:1.325E-02:2.110E-04:1.328E-02:0:0:0:0:0:1179:Probed at Bonn, Iref = 4.015995e-06 with trim bits 9:No loaded to any board yet
TSMC_N25A67-02B1:TSMC_N25A67-02B1_1_6:1:6:1:yellow:4:1:IZM:0:0:0:none:Bonn:4.045251e-06:5:1.197443:16:1.212245:24:0.901412:8:0:2.083E-04:2.413E-02:2.090E-04:2.398E-02:0:0:0:0:0:1116:Probed at Bonn, Iref = 4.045251e-06 with trim bits 5:No loaded to any board yet
TSMC_N25A67-02B1:TSMC_N25A67-02B1_5_9:5:9:2:green:4:2:IZM:0:0:0:none:Bonn:3.991227e-06:8:1.201242:26:1.198453:22:0.9002312:11:0:2.105E-04:1.180E-02:2.109E-04:1.194E-02:0:0:0:0:0:1159:Probed at Bonn, Iref = 3.991227e-06 with trim bits 8:No loaded to any board yet
TSMC_N25A67-02B1:TSMC_N25A67-02B1_3_9:3:9:2:green:4:2:IZM:0:0:0:none:Bonn:3.98659e-06:8:1.207304:20:1.196869:22:0.8993952:10:0:2.096E-04:1.405E-02:2.100E-04:1.430E-02:0:0:0:0:0:1139:Probed at Bonn, Iref = 3.98659e-06 with trim bits 8:No loaded to any board yet
TSMC_N25A67-02B1:TSMC_N25A67-02B1_3_6:3:6:1:yellow:4:1:IZM:0:0:0:none:Bonn:3.972491e-06:6:1.197043:27:1.193323:23:0.9031978:12:0:2.107E-04:1.464E-02:2.111E-04:1.471E-02:0:0:0:0:0:1136:Probed at Bonn, Iref = 3.972491e-06 with trim bits 6:No loaded to any board yet
TSMC_N25A67-02B1:TSMC_N25A67-02B1_6_9:6:9:1:yellow:4:1:IZM:0:0:0:none:Bonn:3.981051e-06:7:1.201771:23:1.199853:18:0.9034969:14:0:2.107E-04:1.376E-02:2.110E-04:1.391E-02:0:0:0:0:0:1169:Probed at Bonn, Iref = 3.981051e-06 with trim bits 7:No loaded to any board yet
TSMC_N25A67-02B1:TSMC_N25A67-02B1_8_10:8:10:1:yellow:4:1:IZM:0:0:0:none:Bonn:3.943235e-06:7:1.200272:22:1.186737:23:0.9023345:12:0:2.111E-04:1.244E-02:2.114E-04:1.271E-02:0:0:0:0:0:118A:Probed at Bonn, Iref = 3.943235e-06 with trim bits 7:No loaded to any board yet
TSMC_N25A67-02B1:TSMC_N25A67-02B1_3_4:3:4:2:green:4:2:IZM:0:0:0:none:Bonn:3.99165e-06:7:1.205081:26:1.199017:21:0.8977659:14:0:2.098E-04:1.228E-02:2.102E-04:1.227E-02:0:0:0:0:0:1134:Probed at Bonn, Iref = 3.99165e-06 with trim bits 7:No loaded to any board yet
TSMC_N25A67-02B1:TSMC_N25A67-02B1_1_8:1:8:1:yellow:4:1:IZM:0:0:0:none:Bonn:3.980399e-06:8:1.197117:13:1.201561:25:0.8985679:9:0:2.075E-04:2.219E-02:2.079E-04:2.223E-02:0:0:0:0:0:1118:Probed at Bonn, Iref = 3.980399e-06 with trim bits 8:No loaded to any board yet
TSMC_N25A67-02B1:TSMC_N25A67-02B1_8_3:8:3:2:green:4:2:IZM:0:0:0:none:Bonn:3.988483e-06:7:1.197791:20:1.208662:20:0.9032251:12:0:2.092E-04:1.941E-02:2.095E-04:1.958E-02:0:0:0:0:0:1183:Probed at Bonn, Iref = 3.988483e-06 with trim bits 7:No loaded to any board yet
TSMC_N25A67-02B1:TSMC_N25A67-02B1_9_3:9:3:1:yellow:4:1:IZM:0:0:0:none:Bonn:4.046969e-06:8:1.190915:27:1.203917:23:0.9009367:12:0:2.104E-04:1.293E-02:2.107E-04:1.301E-02:0:0:0:0:0:1193:Probed at Bonn, Iref = 4.046969e-06 with trim bits 8:No loaded to any board yet
TSMC_N25A67-02B1:TSMC_N25A67-02B1_5_3:5:3:2:green:4:2:IZM:0:0:0:none:Bonn:3.953592e-06:7:1.199538:20:1.195249:23:0.9028851:12:0:2.111E-04:1.447E-02:2.116E-04:1.457E-02:0:0:0:0:0:1153:Probed at Bonn, Iref = 3.953592e-06 with trim bits 7:No loaded to any board yet
TSMC_N25A67-02B1:TSMC_N25A67-02B1_7_8:7:8:1:yellow:4:1:IZM:0:0:0:none:Bonn:4.040087e-06:8:1.202037:26:1.204082:18:0.8998227:14:0:2.106E-04:1.167E-02:2.110E-04:1.163E-02:0:0:0:0:0:1178:Probed at Bonn, Iref = 4.040087e-06 with trim bits 8:No loaded to any board yet
TSMC_N25A67-02B1:TSMC_N25A67-02B1_5_2:5:2:10:red:4:10:IZM:0:0:0:none:Bonn:3.9858e-06:7:1.301342:26:1.387695:10:0.8310516:15:0:-8.207E-09:7.198E-02:1.867E-09:1.118E-01:0:0:0:0:0:1152:Probed at Bonn, Iref = 3.9858e-06 with trim bits 7:No loaded to any board yet
TSMC_N25A67-02B1:TSMC_N25A67-02B1_2_10:2:10:2:green:4:2:IZM:0:0:0:none:Bonn:3.983491e-06:6:1.198873:22:1.195963:20:0.9045802:8:0:2.117E-04:1.469E-02:2.121E-04:1.468E-02:0:0:0:0:0:112A:Probed at Bonn, Iref = 3.983491e-06 with trim bits 6:No loaded to any board yet
TSMC_N25A67-02B1:TSMC_N25A67-02B1_10_8:10:8:2:green:4:2:IZM:0:0:0:none:Bonn:3.946605e-06:6:1.212536:24:1.211631:16:0.8987122:12:0:2.070E-04:2.743E-02:2.073E-04:2.756E-02:0:0:0:0:0:11A8:Probed at Bonn, Iref = 3.946605e-06 with trim bits 6:No loaded to any board yet
TSMC_N25A67-02B1:TSMC_N25A67-02B1_9_5:9:5:2:green:4:2:IZM:0:0:0:none:Bonn:3.963653e-06:7:1.194791:21:1.197233:21:0.9024022:10:0:2.101E-04:1.587E-02:2.105E-04:1.597E-02:0:0:0:0:0:1195:Probed at Bonn, Iref = 3.963653e-06 with trim bits 7:No loaded to any board yet
TSMC_N25A67-02B1:TSMC_N25A67-02B1_7_4:7:4:10:red:4:10:IZM:0:0:0:none:Bonn:4.009124e-06:9:1.209851:24:1.195841:21:0.8295078:5:0:1.932E-04:1.346E-02:1.936E-04:1.350E-02:0:0:0:0:0:1174:Probed at Bonn, Iref = 4.009124e-06 with trim bits 9:No loaded to any board yet
TSMC_N25A67-02B1:TSMC_N25A67-02B1_3_7:3:7:10:red:4:10:IZM:0:0:0:none:Bonn:0:0:0:0:0:0:0:0:0:0.000E+00:0.000E+00:0.000E+00:0.000E+00:0:0:0:0:0:1137:Probed at Bonn, Iref = 0 with trim bits 0:No loaded to any board yet
TSMC_N25A67-02B1:TSMC_N25A67-02B1_6_10:6:10:10:red:4:10:IZM:0:0:0:none:Bonn:0:0:0:0:0:0:0:0:0:0.000E+00:0.000E+00:0.000E+00:0.000E+00:0:0:0:0:0:116A:Probed at Bonn, Iref = 0 with trim bits 0:No loaded to any board yet
TSMC_N25A67-02B1:TSMC_N25A67-02B1_4_7:4:7:1:yellow:4:1:IZM:0:0:0:none:Bonn:4.002675e-06:7:1.197852:24:1.196088:26:0.9017946:12:0:2.085E-04:2.189E-02:2.089E-04:2.185E-02:0:0:0:0:0:1147:Probed at Bonn, Iref = 4.002675e-06 with trim bits 7:No loaded to any board yet
TSMC_N25A67-02B1:TSMC_N25A67-02B1_5_5:5:5:1:yellow:4:1:IZM:0:0:0:none:Bonn:4.046491e-06:7:1.196797:25:1.201467:19:0.9003638:12:0:2.101E-04:1.454E-02:2.103E-04:1.484E-02:0:0:0:0:0:1155:Probed at Bonn, Iref = 4.046491e-06 with trim bits 7:No loaded to any board yet
TSMC_N25A67-02B1:TSMC_N25A67-02B1_8_6:8:6:10:red:4:10:IZM:0:0:0:none:Bonn:4.018112e-06:7:1.203191:26:1.204234:25:0.830734:23:0:1.933E-04:1.530E-02:1.935E-04:1.538E-02:0:0:0:0:0:1186:Probed at Bonn, Iref = 4.018112e-06 with trim bits 7:No loaded to any board yet
TSMC_N25A67-02B1:TSMC_N25A67-02B1_7_3:7:3:10:red:4:10:IZM:0:0:0:none:Bonn:0:0:0:0:0:0:0:0:0:0.000E+00:0.000E+00:0.000E+00:0.000E+00:0:0:0:0:0:1173:Probed at Bonn, Iref = 0 with trim bits 0:No loaded to any board yet
TSMC_N25A67-02B1:TSMC_N25A67-02B1_9_6:9:6:2:green:4:2:IZM:0:0:0:none:Bonn:4.009701e-06:6:1.195401:25:1.201361:19:0.8966787:11:0:2.074E-04:1.822E-02:2.077E-04:1.846E-02:0:0:0:0:0:1196:Probed at Bonn, Iref = 4.009701e-06 with trim bits 6:No loaded to any board yet
TSMC_N25A67-02B1:TSMC_N25A67-02B1_9_10:9:10:2:green:4:2:IZM:0:0:0:none:Bonn:4.029995e-06:8:1.202351:25:1.201198:26:0.8979996:12:0:2.090E-04:1.553E-02:2.094E-04:1.563E-02:0:0:0:0:0:119A:Probed at Bonn, Iref = 4.029995e-06 with trim bits 8:No loaded to any board yet
TSMC_N25A67-02B1:TSMC_N25A67-02B1_5_8:5:8:1:yellow:4:1:IZM:0:0:0:none:Bonn:3.965499e-06:10:1.197946:26:1.196794:23:0.9008964:10:0:2.179E-08:7.447E-02:2.103E-04:1.268E-02:0:0:0:0:0:1158:Probed at Bonn, Iref = 3.965499e-06 with trim bits 10:No loaded to any board yet
TSMC_N25A67-02B1:TSMC_N25A67-02B1_9_8:9:8:2:green:4:2:IZM:0:0:0:none:Bonn:3.956656e-06:8:1.194383:19:1.197957:22:0.8964942:11:0:2.090E-04:1.528E-02:2.095E-04:1.532E-02:0:0:0:0:0:1198:Probed at Bonn, Iref = 3.956656e-06 with trim bits 8:No loaded to any board yet
TSMC_N25A67-02B1:TSMC_N25A67-02B1_8_5:8:5:1:yellow:4:1:IZM:0:0:0:none:Bonn:4.048045e-06:8:1.196667:22:1.19702:18:0.9027378:3:0:1.320E-08:7.743E-02:3.400E-09:1.209E-01:0:0:0:0:0:1185:Probed at Bonn, Iref = 4.048045e-06 with trim bits 8:No loaded to any board yet
TSMC_N25A67-02B1:TSMC_N25A67-02B1_4_6:4:6:1:yellow:4:1:IZM:0:0:0:none:Bonn:4.008532e-06:8:1.197576:18:1.198243:18:0.8979765:13:0:2.094E-04:1.232E-02:2.098E-04:1.246E-02:0:0:0:0:0:1146:Probed at Bonn, Iref = 4.008532e-06 with trim bits 8:No loaded to any board yet
TSMC_N25A67-02B1:TSMC_N25A67-02B1_6_1:6:1:1:yellow:4:1:IZM:0:0:0:none:Bonn:3.94572e-06:5:1.200272:24:1.202453:21:0.9007297:11:0:2.106E-04:1.507E-02:2.110E-04:1.506E-02:0:0:0:0:0:1161:Probed at Bonn, Iref = 3.94572e-06 with trim bits 5:No loaded to any board yet
TSMC_N25A67-02B1:TSMC_N25A67-02B1_4_8:4:8:2:green:4:2:IZM:0:0:0:none:Bonn:4.046595e-06:6:1.203434:25:1.209481:24:0.8976114:13:0:2.089E-04:1.553E-02:2.094E-04:1.557E-02:0:0:0:0:0:1148:Probed at Bonn, Iref = 4.046595e-06 with trim bits 6:No loaded to any board yet
TSMC_N25A67-02B1:TSMC_N25A67-02B1_8_8:8:8:1:yellow:4:1:IZM:0:0:0:none:Bonn:4.048929e-06:8:1.195902:25:1.196918:24:0.8975431:11:0:2.094E-04:1.422E-02:2.099E-04:1.437E-02:0:0:0:0:0:1188:Probed at Bonn, Iref = 4.048929e-06 with trim bits 8:No loaded to any board yet
TSMC_N25A67-02B1:TSMC_N25A67-02B1_7_5:7:5:10:red:4:10:IZM:0:0:0:none:Bonn:4.046926e-06:6:1.207235:24:1.203223:25:0.8375403:16:0:1.954E-04:1.302E-02:1.956E-04:1.314E-02:0:0:0:0:0:1175:Probed at Bonn, Iref = 4.046926e-06 with trim bits 6:No loaded to any board yet
TSMC_N25A67-02B1:TSMC_N25A67-02B1_6_8:6:8:10:red:4:10:IZM:0:0:0:none:Bonn:0:0:0:0:0:0:0:0:0:0.000E+00:0.000E+00:0.000E+00:0.000E+00:0:0:0:0:0:1168:Probed at Bonn, Iref = 0 with trim bits 0:No loaded to any board yet
TSMC_N25A67-02B1:TSMC_N25A67-02B1_4_5:4:5:1:yellow:4:1:IZM:0:0:0:none:Bonn:3.980225e-06:8:1.199793:27:1.198563:23:0.8977752:9:0:2.102E-04:1.279E-02:2.103E-04:1.345E-02:0:0:0:0:0:1145:Probed at Bonn, Iref = 3.980225e-06 with trim bits 8:No loaded to any board yet
TSMC_N25A67-02B1:TSMC_N25A67-02B1_8_4:8:4:2:green:4:2:IZM:0:0:0:none:Bonn:3.973936e-06:5:1.197885:20:1.199965:24:0.8976632:9:0:2.093E-04:1.433E-02:2.097E-04:1.427E-02:0:0:0:0:0:1184:Probed at Bonn, Iref = 3.973936e-06 with trim bits 5:No loaded to any board yet
